Obesity Prediction Dataset
…
# Read csv
dataset <- read_csv("ObesityDataSet.csv")
print(dataset)

## # A tibble: 2,111 × 17
##    Gender   Age Height Weight family_history_with_over…¹ FAVC   FCVC   NCP CAEC 
##    <chr>  <dbl>  <dbl>  <dbl> <chr>                      <chr> <dbl> <dbl> <chr>
##  1 Female    21   1.62   64   yes                        no        2     3 Some…
##  2 Female    21   1.52   56   yes                        no        3     3 Some…
##  3 Male      23   1.8    77   yes                        no        2     3 Some…
##  4 Male      27   1.8    87   no                         no        3     3 Some…
##  5 Male      22   1.78   89.8 no                         no        2     1 Some…
##  6 Male      29   1.62   53   no                         yes       2     3 Some…
##  7 Female    23   1.5    55   yes                        yes       3     3 Some…
##  8 Male      22   1.64   53   no                         no        2     3 Some…
##  9 Male      24   1.78   64   yes                        yes       3     3 Some…
## 10 Male      22   1.72   68   yes                        yes       2     3 Some…
## # ℹ 2,101 more rows
## # ℹ abbreviated name: ¹​family_history_with_overweight
## # ℹ 8 more variables: SMOKE <chr>, CH2O <dbl>, SCC <chr>, FAF <dbl>, TUE <dbl>,
## #   CALC <chr>, MTRANS <chr>, NObeyesdad <chr>
…
    MTRANS_Automobile = ifelse(MTRANS == "Automobile", 1, 0),
    MTRANS_Bike = ifelse(MTRANS == "Bike", 1, 0),
    MTRANS_Motorbike = ifelse(MTRANS == "Motorbike", 1, 0),
    MTRANS_Public_Transportation = ifelse(MTRANS == "Public_Transportation", 1, 0),
    MTRANS_Walking = ifelse(MTRANS == "Walking", 1, 0),

  ) %>%
  dplyr::select(-MTRANS)  
  
print(dataset_encoded)

## # A tibble: 2,087 × 21
##    Gender   Age Height Weight family_history_with_over…¹  FAVC  FCVC   NCP  CAEC
##     <dbl> <dbl>  <dbl>  <dbl>                      <dbl> <dbl> <dbl> <dbl> <dbl>
##  1      0    21   1.62   64                            1     0     2     3     1
##  2      0    21   1.52   56                            1     0     3     3     1
##  3      1    23   1.8    77                            1     0     2     3     1
##  4      1    27   1.8    87                            0     0     3     3     1
##  5      1    22   1.78   89.8                          0     0     2     1     1
##  6      1    29   1.62   53                            0     1     2     3     1
##  7      0    23   1.5    55                            1     1     3     3     1
##  8      1    22   1.64   53                            0     0     2     3     1
##  9      1    24   1.78   64                            1     1     3     3     1
## 10      1    22   1.72   68                            1     1     2     3     1
## # ℹ 2,077 more rows
## # ℹ abbreviated name: ¹​family_history_with_overweight
## # ℹ 12 more variables: SMOKE <dbl>, CH2O <dbl>, SCC <dbl>, FAF <dbl>,
## #   TUE <dbl>, CALC <dbl>, NObeyesdad <dbl>, MTRANS_Automobile <dbl>,
## #   MTRANS_Bike <dbl>, MTRANS_Motorbike <dbl>,
## #   MTRANS_Public_Transportation <dbl>, MTRANS_Walking <dbl>
…
